<svg id="Group_140" data-name="Group 140" xmlns="http://www.w3.org/2000/svg" width="139" height="164" viewBox="0 0 139 164">
  <g id="Group_91" data-name="Group 91" transform="translate(19 0)">
    <rect id="Rectangle_28" data-name="Rectangle 28" width="100" height="100" fill="none"/>
    <g id="Group_90" data-name="Group 90" transform="translate(8)">
      <path id="Path_12" data-name="Path 12" d="M193.231,71.96c0,9.332,4.571,16.188,13.619,20.569a64.209,64.209,0,0,1-9.143,17.426c-4.286,6-8.857,9.046-13.619,9.142a24.332,24.332,0,0,1-8.286-2,25.172,25.172,0,0,0-8.952-2,26.065,26.065,0,0,0-9.048,2q-5.286,2-7.714,2c-3.238.19-6.762-1.619-10.381-5.333a50.5,50.5,0,0,1-8.667-11.617A96.775,96.775,0,0,1,125.993,91.2a57,57,0,0,1-3.143-18.1c0-9.332,2.571-16.664,7.714-21.9a24.974,24.974,0,0,1,18-8c2.19,0,5.429.762,9.619,2.19s6.667,2.19,7.619,2.19a14.263,14.263,0,0,0,3.238-.762c1.524-.476,3.143-1.143,4.762-1.809a34.165,34.165,0,0,1,5.714-1.714,21.745,21.745,0,0,1,5.9-.476c8.476.762,14.762,4.1,18.952,10Q192.945,59.819,193.231,71.96ZM180.469,35.2c-4.762,5.618-9.9,8.285-15.429,7.808a20,20,0,0,1,5.619-16.093A24.051,24.051,0,0,1,185.9,19.11a22.132,22.132,0,0,1-5.431,16.09Z" transform="translate(-122.85 -19.11)" fill="#1f242d"/>
    </g>
  </g>
  <text id="IOS_App" data-name="IOS App" transform="translate(0 155)" fill="#1f242d" font-size="37" font-family="SegoeUI-Semibold, Segoe UI" font-weight="600"><tspan x="0" y="0">IOS App</tspan></text>
</svg>
